[
  {
    "name": "theme_info",
    "theme_name": "Lief Malbec",
    "theme_author": "Malbec",
    "theme_version": "1.0",
    "theme_documentation_url": "",
    "theme_support_url": ""
  },
  {
    "name": "Colors",
    "settings": [
      {
        "type": "header",
        "content": "Text"
      },
      {
        "type": "color",
        "id": "color_text",
        "label": "Main color",
        "default": "#1A211C"
      },
      {
        "type": "color",
        "id": "heading_color_text",
        "label": "Heading color",
        "default": "#21442B"
      },
      {
        "type": "header",
        "content": "Buttons"
      },
      {
        "type": "color",
        "id": "primary_color_button",
        "label": "Primary Color",
        "default": "#40644A"
      },
      {
        "type": "color",
        "id": "primary_color_button_text",
        "label": "Primary Text",
        "default": "#fff"
      },
      {
        "type": "color",
        "id": "secondar_color_button",
        "label": "Secondary Color",
        "default": "#79A978"
      },
      {
        "type": "color",
        "id": "secondary_color_button_text",
        "label": "Secondary Text",
        "default": "#fff"
      },
      {
        "type": "header",
        "content": "Site Colors"
      },
      {
        "type": "color",
        "id": "primary_color",
        "label": "Primary Color",
        "default": "#79A978"
      },
      {
        "type": "color",
        "id": "secondary_color",
        "label": "Secondary Color",
        "default": "#7FAE93"
      },
      {
        "type": "color",
        "id": "tertiary_color",
        "label": "Tertiary Color",
        "default": "#ACCBA8"
      },
      {
        "type": "color",
        "id": "accent_color",
        "label": "Accent Color",
        "default": "#71a081"
      },
      {
        "type": "color",
        "id": "light_color",
        "label": "Light Color",
        "default": "#FFFFFF"
      },
      {
        "type": "color",
        "id": "dark_color",
        "label": "Dark Color",
        "default": "#1A211C"
      }
    ]
  },
  {
    "name": "Blog",
    "settings": [
      {
        "type": "text",
        "id": "post_per_page",
        "label": "Post Per Page",
        "default": "6"
      }
    ]
  },
  {
    "name": "404",
    "settings": [
      {
        "type": "text",
        "id": "404_title",
        "label": "404 Title",
        "default": "404"
      },
      {
        "type": "text",
        "id": "404_text",
        "label": "404 Text",
        "default": "404 Text"
      },
      {
        "type": "image_picker",
        "id": "404_image",
        "label": "404 Image",
        "default": ""
      }
    ]
  }
]
